<?xml version="1.0" encoding="UTF-8" standalone="no"?>
<!-- Created with Inkscape (http://www.inkscape.org/) -->

<svg
   xmlns:dc="http://purl.org/dc/elements/1.1/"
   xmlns:cc="http://creativecommons.org/ns#"
   xmlns:rdf="http://www.w3.org/1999/02/22-rdf-syntax-ns#"
   xmlns:svg="http://www.w3.org/2000/svg"
   xmlns="http://www.w3.org/2000/svg"
   xmlns:sodipodi="http://sodipodi.sourceforge.net/DTD/sodipodi-0.dtd"
   xmlns:inkscape="http://www.inkscape.org/namespaces/inkscape"
   width="67.73333mm"
   height="67.73333mm"
   viewBox="0 0 239.99999 239.99999"
   id="svg4257"
   version="1.1"
   inkscape:version="0.92.3 (2405546, 2018-03-11)"
   sodipodi:docname="scenarium.svg"
   inkscape:export-filename="/home/edoucet/Bureau/logo_scenarium.svg.png"
   inkscape:export-xdpi="19.68749"
   inkscape:export-ydpi="19.68749">
  <defs
     id="defs4259" />
  <sodipodi:namedview
     id="base"
     pagecolor="#ffffff"
     bordercolor="#666666"
     borderopacity="1.0"
     inkscape:pageopacity="0.0"
     inkscape:pageshadow="2"
     inkscape:zoom="2.8284271"
     inkscape:cx="41.076769"
     inkscape:cy="132.30772"
     inkscape:document-units="px"
     inkscape:current-layer="layer1"
     showgrid="false"
     inkscape:snap-intersection-paths="true"
     inkscape:snap-grids="false"
     inkscape:object-nodes="true"
     inkscape:window-width="1920"
     inkscape:window-height="1027"
     inkscape:window-x="0"
     inkscape:window-y="0"
     inkscape:window-maximized="1"
     fit-margin-top="0"
     fit-margin-right="0"
     fit-margin-bottom="0"
     fit-margin-left="0"
     showborder="true"
     borderlayer="false"
     inkscape:showpageshadow="false" />
  <metadata
     id="metadata4262">
    <rdf:RDF>
      <cc:Work
         rdf:about="">
        <dc:format>image/svg+xml</dc:format>
        <dc:type
           rdf:resource="http://purl.org/dc/dcmitype/StillImage" />
        <dc:title></dc:title>
      </cc:Work>
    </rdf:RDF>
  </metadata>
  <g
     inkscape:label="Layer 1"
     inkscape:groupmode="layer"
     id="layer1"
     transform="translate(-76.424843,-588.26233)">
    <rect
       y="588.26233"
       x="76.424843"
       height="240"
       width="240"
       id="rect4495"
       style="opacity:0.98999999;fill:#810000;fill-opacity:1;fill-rule:evenodd;stroke:none;stroke-width:0.93749982;stroke-linecap:round;stroke-linejoin:miter;stroke-miterlimit:4;stroke-dasharray:0.93749979, 1.87499958;stroke-dashoffset:0;stroke-opacity:1" />
    <rect
       style="opacity:0.98999999;fill:#e11f1f;fill-opacity:1;fill-rule:evenodd;stroke:none;stroke-width:0.93749982;stroke-linecap:round;stroke-linejoin:miter;stroke-miterlimit:4;stroke-dasharray:0.93749979, 1.87499958;stroke-dashoffset:0;stroke-opacity:1"
       id="rect4232"
       width="206.297"
       height="206.29695"
       x="93.276413"
       y="605.11389" />
    <path
       style="display:inline;opacity:0.98999999;fill:#ffffff;fill-opacity:1;fill-rule:evenodd;stroke:none;stroke-width:3.74716592;stroke-linecap:round;stroke-linejoin:miter;stroke-miterlimit:4;stroke-dasharray:none;stroke-dashoffset:0;stroke-opacity:1"
       d="m 225.896,634.58463 v 15.65124 c -26.29086,0 -45.74999,-0.0374 -59.39678,0.7566 -6.82339,0.39701 -12.16983,0.97091 -16.51709,2.03579 -4.34727,1.06488 -8.53827,2.42729 -10.83692,7.09552 -1.14933,2.33411 -1.18511,5.15729 -0.57723,7.31484 0.60789,2.15753 1.659,3.8729 2.90409,5.52933 2.49018,3.31286 5.94943,6.49023 10.52547,10.2711 8.99275,7.43011 22.43517,16.9993 39.80929,29.64171 8.18286,6.02062 16.97002,12.31795 24.35618,17.74492 6.70944,4.93835 8.39181,5.9313 12.48627,9.45091 4.93097,4.23868 6.6599,11.2126 -2.89431,12.42022 -6.40968,0.81016 -14.69446,0.71732 -24.45644,0.80714 -9.76069,0.0898 -21.19674,0.0856 -34.34436,0.0856 v -15.65613 h -44.20699 v 44.20616 h 44.20699 v -15.64552 c 26.28822,0 45.74601,0.0374 59.39189,-0.7566 6.8234,-0.39702 12.16982,-0.97091 16.5171,-2.0358 4.34727,-1.06488 8.53826,-2.42728 10.83691,-7.09551 1.14932,-2.33412 1.18512,-5.1573 0.57723,-7.31484 -0.60788,-2.15755 -1.659,-3.87292 -2.90408,-5.52934 -2.49018,-3.31286 -5.94944,-6.49023 -10.52548,-10.27109 -8.99276,-7.43012 -22.43518,-16.99931 -39.80929,-29.64172 -8.18284,-6.02064 -16.97001,-12.31795 -24.35616,-17.74492 -6.70943,-4.93835 -8.3918,-5.9313 -12.48626,-9.45091 -4.93098,-4.23867 -6.65991,-11.2126 2.8943,-12.42021 6.40968,-0.81017 14.69446,-0.71732 24.45644,-0.80715 9.76199,-0.0898 21.19943,-0.0856 34.34925,-0.0856 v 15.65124 h 44.20618 v -44.20698 z"
       id="rect4228-7"
       inkscape:connector-curvature="0"
       sodipodi:nodetypes="ccssssssccsssccccccssssssccsssccccc" />
    <rect
       style="opacity:0.98999999;fill:#ffffff;fill-opacity:1;fill-rule:evenodd;stroke:none;stroke-width:3.74999928;stroke-linecap:butt;stroke-linejoin:miter;stroke-miterlimit:4;stroke-dasharray:none;stroke-dashoffset:0;stroke-opacity:1"
       id="rect4876"
       width="9.6076088"
       height="9.607604"
       x="210.25089"
       y="634.58466" />
    <rect
       y="634.58453"
       x="194.60579"
       height="9.607604"
       width="9.6076088"
       id="rect4878"
       style="opacity:0.98999999;fill:#ffffff;fill-opacity:1;fill-rule:evenodd;stroke:none;stroke-width:3.74999928;stroke-linecap:butt;stroke-linejoin:miter;stroke-miterlimit:4;stroke-dasharray:none;stroke-dashoffset:0;stroke-opacity:1" />
    <rect
       style="opacity:0.98999999;fill:#ffffff;fill-opacity:1;fill-rule:evenodd;stroke:none;stroke-width:3.74999928;stroke-linecap:butt;stroke-linejoin:miter;stroke-miterlimit:4;stroke-dasharray:none;stroke-dashoffset:0;stroke-opacity:1"
       id="rect4882"
       width="9.6076088"
       height="9.607604"
       x="178.96068"
       y="634.58441" />
  </g>
</svg>
